<svg xmlns="http://www.w3.org/2000/svg" width="50" height="50" viewBox="0 0 50 50">
    <g fill="none" fill-rule="evenodd">
        <path d="M0 0h50v50H0z"/>
        <path stroke="#222" stroke-linecap="round" stroke-linejoin="round" stroke-width="2" d="M24.999 29L18 22l7.001 7h-.002L32 22"/>
    </g>
</svg>
